{
    "Crear":"Create Table if not exists {} ({})",
    "AgregarInformacion":"INSERT INTO {} VALUES (NULL, {})",
    "LeerInformacion":"SELECT*FROM {}",
    "ActualizarInformacion":"UPDATE {} SET {} ='{}' WHERE ID {}",
    "EliminarInformacion":"DELETE FROM {} WHERE ID={}",
    "ColumnaFutbol":"ID INTEGER PRIMARY KEY AUTOINCREMENT, NombreLiga TEXT NOT NULL, AñoCreacionLiga INTEGER, Confederacion TEXT, OrganismoqueRige TEXT, PaisEquipo TEXT, CiudadEquipo TEXT",
    "ColumnaEquiposFutbol":"ID INTEGER PRIMARY KEY, Equipo TEXT NOT NULL, CategoriaLigaEquipo VARCHAR (25), DirectorTecnico TEXT, GoleadorHistorico TEXT, Titulos INTEGER, Estadio TEXT NOT NULL, foreign key (ID) references Futbol(ID)"
}