{
    "Crear":"Create Table if not exists {} ({})",
    "AgregarInformacion":"INSERT INTO {} VALUES (NULL, {})",
    "EliminarInformacion":"DELETE FROM {} WHERE ID={}",
    "ColumnaUniversidad":"ID INTEGER PRIMARY KEY AUTOINCREMENT, Nombre TEXT NOT NULL, direccion TEXT, rector TEXT, fundacion TEXT, telefono TEXT, correoElectronico TEXT",
    "ColumnaEstudiante":"ID INTEGER PRIMARY KEY AUTOINCREMENT, nombre TEXT NOT NULL, apellido VARCHAR (25), dni TEXT, fechaIngreso TEXT, carrera INTEGER, correoelectronico TEXT NOT NULL",
    "ColumnaMatricula":"ID INTEGER PRIMARY KEY AUTOINCREMENT, fechaMatricula TEXT, estudiante TEXT, universidad TEXT, notaFinal FLOAT, foreign key (ID) references Universidad(ID)",
    "ColumnaMateria":"ID INTEGER PRIMARY KEY AUTOINCREMENT, fechaMatricula TEXT, estudiante TEXT, universidad TEXT, notaFinal FLOAT, foreign key (ID) references Universidad(ID)"

}